// Jest Snapshot v1, https://goo.gl/fbAQLP

exports[`frontend/default/components/table_of_contents matches snapshot 1`] = `
<div
  class="markdown-toc table-of-contents-container position-sticky"
>
  <div
    class="table-of-contents"
  >
    <h4
      class="border-0 toc-sm d-xl-none"
    >
      <a
        aria-controls="markdown-toc"
        class="d-flex text-decoration-none border-bottom-0"
        data-testid="collapse"
        href="#"
        role="button"
      >
        <svg
          aria-hidden="true"
          class="gl-pt-2 gl-mr-2 s18 gl-icon s16"
          data-testid="chevron-right-icon"
          role="img"
        >
          <use
            href="[object Object]#chevron-right"
          />
        </svg>
         On this page
        
      </a>
    </h4>
     
    <h4
      class="border-0 gl-font-base font-weight-bold toc-lg"
    >
      On this page
    </h4>
     
    <div
      class="sm-collapsed"
      data-testid="container"
    >
      <ul
        class="nav nav-pills flex-column my-0"
        data-testid="main-list"
      >
        <li
          class="mb-0"
        >
          <a
            class="nav-link d-block toc-level-0"
            href="#lorem"
            id="Lorem-anchor"
          >
            Lorem
          </a>
           
          <!---->
        </li>
        <li
          class="mb-0"
        >
          <a
            class="nav-link d-block toc-level-1"
            href="#lorem-"
            id="Lorem 2-anchor"
          >
            Lorem 2
          </a>
           
          <!---->
        </li>
        <li
          class="mb-0"
        >
          <a
            class="nav-link d-block toc-level-0"
            href="#ipsum"
            id="Ipsum-anchor"
          >
            Ipsum
          </a>
           
          <!---->
        </li>
        <li
          class="mb-0"
        >
          <a
            class="nav-link d-block toc-level-1"
            href="#dolar"
            id="Dolar-anchor"
          >
            Dolar
          </a>
           
          <!---->
        </li>
        <li
          class="mb-0"
        >
          <a
            class="nav-link d-block toc-level-2"
            href="#sit"
            id="Sit-anchor"
          >
            Sit
          </a>
           
          <!---->
        </li>
        <li
          class="mb-0"
        >
          <a
            class="nav-link d-block toc-level-2"
            href="#amit"
            id="Amit-anchor"
          >
            Amit
          </a>
           
          <!---->
        </li>
        <li
          class="mb-0"
        >
          <a
            class="nav-link d-block toc-level-2"
            href="#test"
            id="Test-anchor"
          >
            Test
          </a>
           
          <!---->
        </li>
        <li
          class="mb-0"
        >
          <a
            class="nav-link d-block toc-level-0"
            href="#test-help-and-feedback"
          >
            Help and feedback
          </a>
           
          <!---->
        </li>
      </ul>
    </div>
  </div>
</div>
`;
